…
Now combine the annual precipitation.

``` r
month_df = 
  tibble(
    month = 1:12,
    month_name = month.name
  )

precip_df = bind_rows(precip_2018, precip_2017)

left_join(precip_df, month_df, by = "month")
```

    ## # A tibble: 24 x 4
    ##     year month total month_name
    ##    <dbl> <dbl> <dbl> <chr>     
    ##  1  2018     1  0.94 January   
    ##  2  2018     2  4.8  February  
    ##  3  2018     3  2.69 March     
    ##  4  2018     4  4.69 April     
    ##  5  2018     5  9.27 May       
    ##  6  2018     6  4.77 June      
    ##  7  2018     7 10.2  July      
    ##  8  2018     8  6.45 August    
    ##  9  2018     9 10.5  September 
    ## 10  2018    10  2.12 October   
    ## # … with 14 more rows
…
# replace month number with month name
pols_month_df$month = month.name[as.numeric(pols_month_df$month)]

# create a president variable taking values gop and dem, and remove prez_dem and prez_gop
pols_month_df$president = ifelse(pols_month_df$prez_dem == 1, 'dem', 'gop')
pols_month_df = subset(pols_month_df, select = -c(prez_dem, prez_gop))
```

Take a look of the pols-month csv after cleaning

``` r
pols_month_df
```

    ## # A tibble: 822 x 9
    ##    year  month     gov_gop sen_gop rep_gop gov_dem sen_dem rep_dem president
    ##    <chr> <chr>       <dbl>   <dbl>   <dbl>   <dbl>   <dbl>   <dbl> <chr>    
    ##  1 1947  January        23      51     253      23      45     198 dem      
    ##  2 1947  February       23      51     253      23      45     198 dem      
    ##  3 1947  March          23      51     253      23      45     198 dem      
    ##  4 1947  April          23      51     253      23      45     198 dem      
    ##  5 1947  May            23      51     253      23      45     198 dem      
    ##  6 1947  June           23      51     253      23      45     198 dem      
    ##  7 1947  July           23      51     253      23      45     198 dem      
    ##  8 1947  August         23      51     253      23      45     198 dem      
    ##  9 1947  September      23      51     253      23      45     198 dem      
    ## 10 1947  October        23      51     253      23      45     198 dem      
    ## # … with 812 more rows
…
# replace month number with month name
snp_df$month = month.name[as.numeric(snp_df$month)]
```

Take a look of the snp csv after cleaning

``` r
snp_df
```

    ## # A tibble: 787 x 3
    ##    year  month    close
    ##    <chr> <chr>    <dbl>
    ##  1 2015  July     2080.
    ##  2 2015  June     2063.
    ##  3 2015  May      2107.
    ##  4 2015  April    2086.
    ##  5 2015  March    2068.
    ##  6 2015  February 2104.
    ##  7 2015  January  1995.
    ##  8 2014  December 2059.
    ##  9 2014  November 2068.
    ## 10 2014  October  2018.
    ## # … with 777 more rows
…
unemployment_df[1] = sapply(unemployment_df[1], as.character)
```

Take a look of the unemployment csv after cleaning

``` r
unemployment_df
```

    ## # A tibble: 816 x 3
    ##    year  month     percent_unemployment
    ##    <chr> <chr>                    <dbl>
    ##  1 1948  January                    3.4
    ##  2 1948  February                   3.8
    ##  3 1948  March                      4  
    ##  4 1948  April                      3.9
    ##  5 1948  May                        3.5
    ##  6 1948  June                       3.6
    ##  7 1948  July                       3.6
    ##  8 1948  August                     3.9
    ##  9 1948  September                  3.8
    ## 10 1948  October                    3.7
    ## # … with 806 more rows
